src/tb/ram_tb.vcd
$date
	Sun Dec 21 12:14:17 2025
$end
$version
	Icarus Verilog
$end
$timescale
	1ps
$end
$scope module ram_tb $end
$var wire 16 ! out [15:0] $end
$var parameter 32 " adres_W $end
$var parameter 32 # data_W $end
$var reg 5 $ adres [4:0] $end
$var reg 1 % clk $end
$var reg 16 & dane [15:0] $end
$var reg 1 ' wr_mem $end
$scope module DUT $end
$var wire 5 ( adres [4:0] $end
$var wire 1 % clk $end
$var wire 16 ) data [15:0] $end
$var wire 1 ' wr $end
$var parameter 32 * ADDR_WIDTH $end
$var parameter 32 + DATA_WIDTH $end
$var reg 16 , data_out [15:0] $end
$scope begin Ram $end
$upscope $end
$upscope $end
$upscope $end
$enddefinitions $end
$comment Show the parameter values. $end
$dumpall
b10000 +
b101 *
b10000 #
b101 "
$end
#0
$dumpvars
bx ,
b0 )
b0 (
0'
b0 &
1%
b0 $
bx !
$end
#5000
0%
#10000
b10101010 &
b10101010 )
1'
1%
#15000
0%
#20000
b10101010 !
b10101010 ,
0'
1%
#25000
0%
#30000
b1010101 &
b1010101 )
b1 $
b1 (
1'
1%
#35000
0%
#40000
b1010101 !
b1010101 ,
0'
1%
#45000
0%
#50000
b11001100 &
b11001100 )
b1010 $
b1010 (
1'
1%
#55000
0%
#60000
b11001100 !
b11001100 ,
0'
1%
#65000
0%
#70000
b10101010 !
b10101010 ,
b0 $
b0 (
1%
#75000
0%
#80000
b1010101 !
b1010101 ,
b1 $
b1 (
1%
#85000
0%
#90000
b11001100 !
b11001100 ,
b1010 $
b1010 (
1%
#95000
0%
#100000
bx !
bx ,
b10 $
b10 (
1%
